^C:\USERS\IOANN\DOCUMENTS\ПРОГИ\MP2-LAB1-SET\GTEST\GTEST-ALL.CC
C:\USERS\IOANN\DOCUMENTS\проги\MP2-LAB1-SET\SLN\VC10\GTEST\DEBUG\VC120.PDB
C:\USERS\IOANN\DOCUMENTS\проги\MP2-LAB1-SET\SLN\VC10\GTEST\DEBUG\VC120.IDB
C:\USERS\IOANN\DOCUMENTS\Проги\MP2-LAB1-SET\SLN\VC10\GTEST\DEBUG\GTEST-ALL.OBJ
